{
    "version": "1.11.0",
    "description": "Viewer of TigerVNC, a high-performance, platform-neutral implementation of VNC",
    "homepage": "https://tigervnc.org/",
    "license": "GPL-2.0",
    "architecture": {
        "64bit": {
            "url": "https://dl.bintray.com/tigervnc/stable/vncviewer64-1.11.0.exe",
            "hash": "9d8b2fb3f451f7e2160500068df12b0792afca89d999dfb62d4d9bc591a5d910"
        },
        "32bit": {
            "url": "https://dl.bintray.com/tigervnc/stable/vncviewer-1.11.0.exe",
            "hash": "e54b179d03e2e940e3f88ba64489e52614fb46bef1fca6ef8aedad06afb698bc"
        }
    },
    "shortcuts": [
        [
            "vncviewer.exe",
            "TigerVNC Viewer"
        ]
    ],
    "checkver": {
        "github": "https://github.com/TigerVNC/tigervnc"
    },
    "autoupdate": {
        "architecture": {
            "64bit": {
                "url": "https://dl.bintray.com/tigervnc/stable/vncviewer64-$version.exe"
            },
            "32bit": {
                "url": "https://dl.bintray.com/tigervnc/stable/vncviewer-$version.exe"
            }
        }
    }
}
